module http-rest-api

go 1.17

require (
	github.com/BurntSushi/toml v1.1.0 // indirect
	github.com/asaskevich/govalidator v0.0.0-20210307081110-f21760c49a8d // indirect
	github.com/davecgh/go-spew v1.1.1 // indirect
	github.com/go-ozzo/ozzo-validation v3.6.0+incompatible // indirect
	github.com/golang-migrate/migrate v3.5.4+incompatible // indirect
	github.com/gorilla/mux v1.8.0 // indirect
	github.com/gorilla/securecookie v1.1.1 // indirect
	github.com/gorilla/sessions v1.2.1 // indirect
	github.com/lib/pq v1.10.6 // indirect
	github.com/pmezard/go-difflib v1.0.0 // indirect
	github.com/sirupsen/logrus v1.8.1 // indirect
	github.com/stretchr/objx v0.4.0 // indirect
	github.com/stretchr/testify v1.8.0 // indirect
	golang.org/x/crypto v0.0.0-20220817201139-bc19a97f63c8 // indirect
	golang.org/x/sys v0.0.0-20210615035016-665e8c7367d1 // indirect
	gopkg.in/yaml.v3 v3.0.1 // indirect
)
